<?xml version="1.0" encoding="UTF-8" standalone="no"?>
<svg
   fill="none"
   viewBox="0 0 24 24"
   stroke-width="1.1"
   stroke="currentColor"
   class="w-6 h-6"
   xmlns="http://www.w3.org/2000/svg">
  <path
     stroke-linecap="round"
     stroke-linejoin="round"
     d="m 12,6 v 12 m -3,-2.818 0.879,0.659 c 1.171,0.879 3.07,0.879 4.242,0 1.172,-0.879 1.172,-2.303 0,-3.182 C 13.536,12.219 12.768,12 12,12 c -0.725,0 -1.45,-0.22 -2.003,-0.659 -1.106,-0.879 -1.106,-2.303 0,-3.182 1.106,-0.879 2.9,-0.879 4.006,0 l 0.415,0.33" />
</svg>
